…
<img src="eda_files/figure-gfm/unnamed-chunk-4-1.png" width="90%" />

``` r
# central park and molokai has grid distribution while waterhole is different (b/c they used different measurement processes)
```

## Add groups

``` r
weather_df |> 
  group_by(name, month)
```

    ## # A tibble: 2,190 × 7
    ## # Groups:   name, month [72]
    ##    name           id          date        prcp  tmax  tmin month     
    ##    <chr>          <chr>       <date>     <dbl> <dbl> <dbl> <date>    
    ##  1 CentralPark_NY USW00094728 2021-01-01   157   4.4   0.6 2021-01-01
    ##  2 CentralPark_NY USW00094728 2021-01-02    13  10.6   2.2 2021-01-01
    ##  3 CentralPark_NY USW00094728 2021-01-03    56   3.3   1.1 2021-01-01
    ##  4 CentralPark_NY USW00094728 2021-01-04     5   6.1   1.7 2021-01-01
    ##  5 CentralPark_NY USW00094728 2021-01-05     0   5.6   2.2 2021-01-01
    ##  6 CentralPark_NY USW00094728 2021-01-06     0   5     1.1 2021-01-01
    ##  7 CentralPark_NY USW00094728 2021-01-07     0   5    -1   2021-01-01
    ##  8 CentralPark_NY USW00094728 2021-01-08     0   2.8  -2.7 2021-01-01
    ##  9 CentralPark_NY USW00094728 2021-01-09     0   2.8  -4.3 2021-01-01
    ## 10 CentralPark_NY USW00094728 2021-01-10     0   5    -1.6 2021-01-01
    ## # ℹ 2,180 more rows
…
``` r
weather_df |> 
  group_by(month) |> 
  summarize(
    n = n_distinct(date) # number of distinct dates for each month
  )
```

    ## # A tibble: 24 × 2
    ##    month          n
    ##    <date>     <int>
    ##  1 2021-01-01    31
    ##  2 2021-02-01    28
    ##  3 2021-03-01    31
    ##  4 2021-04-01    30
    ##  5 2021-05-01    31
    ##  6 2021-06-01    30
    ##  7 2021-07-01    31
    ##  8 2021-08-01    31
    ##  9 2021-09-01    30
    ## 10 2021-10-01    31
    ## # ℹ 14 more rows
…
``` r
weather_df |> 
  group_by(name, month) |> 
  summarize(
    mean_tmax = mean(tmax, na.rm = TRUE),
    median_tmin = median(tmin, na.rm = TRUE), 
    sd_prcp = sd(prcp, na.rm = TRUE)
    # need to drop NAs or you will also be given NA for these summary statistics
  ) 
```

    ## `summarise()` has grouped output by 'name'. You can override using the
    ## `.groups` argument.

    ## # A tibble: 72 × 5
    ## # Groups:   name [3]
    ##    name           month      mean_tmax median_tmin sd_prcp
    ##    <chr>          <date>         <dbl>       <dbl>   <dbl>
    ##  1 CentralPark_NY 2021-01-01      4.27       -0.5     47.3
    ##  2 CentralPark_NY 2021-02-01      3.87       -1.85    98.1
    ##  3 CentralPark_NY 2021-03-01     12.3         5       71.3
    ##  4 CentralPark_NY 2021-04-01     17.6         8.05    52.4
    ##  5 CentralPark_NY 2021-05-01     22.1        11.1     74.7
    ##  6 CentralPark_NY 2021-06-01     28.1        18.0     43.3
    ##  7 CentralPark_NY 2021-07-01     28.4        21.1    151. 
    ##  8 CentralPark_NY 2021-08-01     28.8        22.2    236. 
    ##  9 CentralPark_NY 2021-09-01     24.8        17.5    333. 
    ## 10 CentralPark_NY 2021-10-01     19.9        13.9    151. 
    ## # ℹ 62 more rows
…
    ## Warning: Removed 17 rows containing missing values or values outside the scale range
    ## (`geom_point()`).

<img src="eda_files/figure-gfm/unnamed-chunk-12-1.png" width="90%" />

Look for cold days.

``` r
weather_df |> 
  group_by(name, month) |> 
  mutate(temp_rank = min_rank(desc(tmin))) |> 
  filter(temp_rank < 2)
```

    ## # A tibble: 98 × 8
    ## # Groups:   name, month [72]
    ##    name           id          date        prcp  tmax  tmin month      temp_rank
    ##    <chr>          <chr>       <date>     <dbl> <dbl> <dbl> <date>         <int>
    ##  1 CentralPark_NY USW00094728 2021-01-14     0   9.4   3.9 2021-01-01         1
    ##  2 CentralPark_NY USW00094728 2021-02-28    56   7.2   5   2021-02-01         1
    ##  3 CentralPark_NY USW00094728 2021-03-12     0  20    11.1 2021-03-01         1
    ##  4 CentralPark_NY USW00094728 2021-03-26    48  27.8  11.1 2021-03-01         1
    ##  5 CentralPark_NY USW00094728 2021-04-29     5  23.9  15   2021-04-01         1
    ##  6 CentralPark_NY USW00094728 2021-05-23     0  31.1  20   2021-05-01         1
    ##  7 CentralPark_NY USW00094728 2021-06-29     0  35    25.6 2021-06-01         1
    ##  8 CentralPark_NY USW00094728 2021-07-16     0  32.8  26.1 2021-07-01         1
    ##  9 CentralPark_NY USW00094728 2021-08-13     0  34.4  25.6 2021-08-01         1
    ## 10 CentralPark_NY USW00094728 2021-08-26     0  32.8  25.6 2021-08-01         1
    ## # ℹ 88 more rows

``` r
# shows the hottest day and its temperature for each month across names (locations) using tmin
# there is no max_rank
```

What about lags?

``` r
weather_df |> 
  group_by(name) |> 
  mutate(lagged_tmax = lag(tmax))
```

    ## # A tibble: 2,190 × 8
    ## # Groups:   name [3]
    ##    name           id         date        prcp  tmax  tmin month      lagged_tmax
    ##    <chr>          <chr>      <date>     <dbl> <dbl> <dbl> <date>           <dbl>
    ##  1 CentralPark_NY USW000947… 2021-01-01   157   4.4   0.6 2021-01-01        NA  
    ##  2 CentralPark_NY USW000947… 2021-01-02    13  10.6   2.2 2021-01-01         4.4
    ##  3 CentralPark_NY USW000947… 2021-01-03    56   3.3   1.1 2021-01-01        10.6
    ##  4 CentralPark_NY USW000947… 2021-01-04     5   6.1   1.7 2021-01-01         3.3
    ##  5 CentralPark_NY USW000947… 2021-01-05     0   5.6   2.2 2021-01-01         6.1
    ##  6 CentralPark_NY USW000947… 2021-01-06     0   5     1.1 2021-01-01         5.6
    ##  7 CentralPark_NY USW000947… 2021-01-07     0   5    -1   2021-01-01         5  
    ##  8 CentralPark_NY USW000947… 2021-01-08     0   2.8  -2.7 2021-01-01         5  
    ##  9 CentralPark_NY USW000947… 2021-01-09     0   2.8  -4.3 2021-01-01         2.8
    ## 10 CentralPark_NY USW000947… 2021-01-10     0   5    -1.6 2021-01-01         2.8
    ## # ℹ 2,180 more rows
…
